…
The other day I was tasked with processing some data that had been generated from a survey that included checkboxes. You know, the “tick all that apply”, kind of questions. Nothing against this style of response, it can be quite effective for collecting unbiased data. However, platforms such as Qualtrics annoyingly make it such that checkbox responses are output as singular concatenated strings per response!

Let’s take a look at what this might look like, using the Star Wars dataset in the most recent version of dplyr:

dplyr::starwars

## # A tibble: 87 x 13
##    name     height  mass hair_color skin_color eye_color birth_year gender
##    <chr>     <int> <dbl> <chr>      <chr>      <chr>          <dbl> <chr> 
##  1 Luke Sk…    172    77 blond      fair       blue            19   male  
##  2 C-3PO       167    75 <NA>       gold       yellow         112   <NA>  
##  3 R2-D2        96    32 <NA>       white, bl… red             33   <NA>  
##  4 Darth V…    202   136 none       white      yellow          41.9 male  
##  5 Leia Or…    150    49 brown      light      brown           19   female
##  6 Owen La…    178   120 brown, gr… light      blue            52   male  
##  7 Beru Wh…    165    75 brown      light      blue            47   female
##  8 R5-D4        97    32 <NA>       white, red red             NA   <NA>  
##  9 Biggs D…    183    84 black      light      brown           24   male  
## 10 Obi-Wan…    182    77 auburn, w… fair       blue-gray       57   male  
## # ... with 77 more rows, and 5 more variables: homeworld <chr>,
## #   species <chr>, films <list>, vehicles <list>, starships <list>
…
