…
## Warning in strptime(x, fmt, tz = "GMT"): unknown timezone
## 'America_New_York'

lupe_meta

## # A tibble: 1 x 3
##   artist_id artist_name artist_url                            
##       <int> <chr>       <chr>                                 
## 1       147 Lupe Fiasco https://genius.com/artists/Lupe-fiasco

#next, use the metadata to pull ALL of the artists songs from genius
lupe_songlist = get_artist_songs(lupe_meta$artist_id[1], access_token = ACCESS_TOKEN)
lupe_songlist

## # A tibble: 378 x 7
##    song_id song_name      song_lyrics_url       annotation_count artist_id
##      <int> <chr>          <chr>                            <int>     <int>
##  1   60421 1st & 15th     https://genius.com/L…               21       147
##  2  302059 4 Real         https://genius.com/L…               10       147
##  3    1380 A Bathing Har… https://genius.com/L…               13       147
##  4    5556 Absolute Free… https://genius.com/L…               29       147
##  5   49160 Accept the Tr… https://genius.com/L…               34       147
##  6  663358 Adoration of … https://genius.com/L…               72       147
##  7    6361 Airplanes (Ft… https://genius.com/L…               29       147
##  8 3955900 Alan Forever … https://genius.com/L…                9       147
##  9    4712 All Black Eve… https://genius.com/L…               32       147
## 10  122226 All Black Eve… https://genius.com/L…                3       147
## # ... with 368 more rows, and 2 more variables: artist_name <chr>,
## #   artist_url <chr>

#lastly, use the song name column to filter for the song you want
#then pull the song ID of that row, and use that as the id of the song
#to scrape

jump = lupe_songlist%>%
  filter(str_detect(song_name, "Jump"))%>%
  .$song_id%>%
  scrape_lyrics_id(., access_token = ACCESS_TOKEN)
jump

## # A tibble: 77 x 5
##    line                         song_id song_name    artist_id artist_name
##    <chr>                          <int> <chr>            <int> <chr>      
##  1 Gold medals, them my role m… 2949269 Jump (Ft. G…       147 Lupe Fiasco
##  2 Lowered old schools, flowin… 2949269 Jump (Ft. G…       147 Lupe Fiasco
##  3 Flower bearin', call it pet… 2949269 Jump (Ft. G…       147 Lupe Fiasco
##  4 Power sharin', call it devi… 2949269 Jump (Ft. G…       147 Lupe Fiasco
##  5 Power, power, 'til ain't no… 2949269 Jump (Ft. G…       147 Lupe Fiasco
##  6 Flower, flowers, they be dr… 2949269 Jump (Ft. G…       147 Lupe Fiasco
##  7 Move a thousand miles per h… 2949269 Jump (Ft. G…       147 Lupe Fiasco
##  8 And who do I meet, to the b… 2949269 Jump (Ft. G…       147 Lupe Fiasco
##  9 It was little Susie Uzi, sh… 2949269 Jump (Ft. G…       147 Lupe Fiasco
## 10 All bitch dope tip, wasn't … 2949269 Jump (Ft. G…       147 Lupe Fiasco
## # ... with 67 more rows
…
